模块	Key	IsSystemKey	Comment-Android	en	zh-Hans	zh-Hant		Spanish	Franch
	AD	FALSE	ad	AD	广告				
	BitColor	FALSE	app_name	BitColor	BitColor				
	Apply	FALSE	apply	Apply	选择				
	Continue	FALSE	c_continue	Continue	继续				
	Cancel	FALSE	cancel	Cancel	取消				
	Select a Color	FALSE	cpv_default_title	Select a Color	选择颜色				
	Restore	FALSE	cpv_restore	Restore	还原				
	Select	FALSE	cpv_select	Select	确定				
	Done	FALSE	done	Done	完成				
	Coloring for 20 minutes a day will improve your concentration.	FALSE	edit_download_tip1	Coloring for 20 minutes a day will improve your concentration.	每天涂色20分钟可以提高你的注意力				
	Got It	FALSE	edit_guide_btn	Got It	立刻涂色				
	Pinch to zoom in, show numbers	FALSE	edit_guide_tip1	Pinch to zoom in, show numbers	双指放大，显示数字				
	Select colors, color by number	FALSE	edit_guide_tip2	Select colors, color by number	按数字选择颜色，点击上色				
	Long press to color faster	FALSE	edit_guide_tip3	Long press to color faster	长按快速涂色				
	Empty feedback	FALSE	feedback_input_empty	Empty feedback	内容不能为空哦				
	Import camera	FALSE	import_camera	Import camera	从相机选				
	Are you sure to delete?	FALSE	import_delete	Are you sure to delete?	确定要删除这张图片吗?				
	Easy	FALSE	import_easy	Easy	简单				
	Hard	FALSE	import_hard	Hard	困难				
	Import picture	FALSE	import_pic	Import picture	从相册选				
	Are you sure to restart?	FALSE	import_restart	Are you sure to restart?	你确定要重新开始吗？				
	Select a photo, make it pixelated and color it by number.	FALSE	import_tip	Select a photo, make it pixelated and color it by number.	选择一张图片转成像素图，然后进行填色				
	Import	FALSE	import_title	Import	导入图片				
	Loading	FALSE	loading	Loading	加载视频				
	Activities	FALSE	main_tab_activities	Activities	活动				
	Create	FALSE	main_tab_create	Create	创建				
	Daily	FALSE	main_tab_daily	Daily	每日一图				
	My Work	FALSE	main_tab_me	My Work	我的作品				
	Library	FALSE	main_tab_square	Library	图库				
	All	FALSE	my_tab_all	All	全部				
	In Progress	FALSE	my_tab_in_progress	In Progress	进行中				
	Next	FALSE	next	Next	下一步				
	NO	FALSE	no_upper	NO	算了				
	OK	FALSE	ok_upper	OK	确定				
	Oops!	FALSE	oops	Oops!	哎呀!				
	You haven\'t got today’s image yet.🤔	FALSE	push_content_1	You haven\'t got today’s image yet.🤔	你还没有获得今天的图片🤔				
	You cannot miss the image of the day!✨	FALSE	push_content_2	You cannot miss the image of the day!✨	你不能错过这一天的图片!✨				
	Click to continue!	FALSE	push_content_3	Click to continue!	点击继续！				
	📸Take a picture and color yourself!	FALSE	push_content_4	📸Take a picture and color yourself!	📸自己拍照并上色！				
	Look at these newly arrived pixel arts!😍	FALSE	push_content_5	Look at these newly arrived pixel arts!😍	快来看看最新的萌萌哒作品吧！😍				
	you have done a GREAT job, Continue it!🎨📖	FALSE	push_content_6	you have done a GREAT job, Continue it!🎨📖	你一直做得很好，快来继续吧!🎨📖				
	bring yourself a EASY time.5 Minutes!👉	FALSE	push_content_7	bring yourself a EASY time.5 Minutes!👉	享受一些轻松时光.只需5分钟!👉				
	Bitcolor	FALSE	push_title_1	Bitcolor	Bitcolor				
	Bitcolor	FALSE	push_title_2	Bitcolor	Bitcolor				
	😊It seems you haven’t finish coloring.	FALSE	push_title_3	😊It seems you haven’t finish coloring.	💔没画完的就不管了吗？				
	❤We miss you!	FALSE	push_title_4	❤We miss you!	❤我们想念你！				
	😺OMG, so cute!	FALSE	push_title_5	😺OMG, so cute!	😺天哪，好可爱！				
	Bitcolor	FALSE	push_title_6	Bitcolor	Bitcolor				
	Break from Stressful Days	FALSE	push_title_7	Break from Stressful Days	摆脱压力的时光				
	Please leave us your feedback, your advice is our valuable precious.	FALSE	rate_hint	Please leave us your feedback, your advice is our valuable precious.	请留下您的建议，您的建议是我们宝贵的财富。				
	success	FALSE	rate_success	success	完成				
	Please give us a rate	FALSE	rate_us_tip	Please give us a rate	感谢您给我们评分				
	Retry	FALSE	retry	Retry	重试				
	Pictures saved to Bitcolor Album	FALSE	saved	Pictures saved to Bitcolor Album	图片已保存到Bitcolor相册中				
	Setting	FALSE	setting	Setting	设置				
	Feedback	FALSE	setting_item_support	Feedback	意见反馈				
	Responsiveness for coloring	FALSE	setting_title_anim_s	Responsiveness for coloring	填色时是否播放动画				
	Coloring Effect	FALSE	setting_title_anim_t	Coloring Effect	填色动画				
	Notification for new pictures	FALSE	setting_title_daily_notify_s	Notification for new pictures	是否接受每日新图通知				
	Daily Pics	FALSE	setting_title_daily_notify_t	Daily Pics	每日新图				
	Change color by double click unmatched area	FALSE	setting_title_double_click_s	Change color by double click unmatched area	双击不匹配区域更改颜色				
	Double Click	FALSE	setting_title_double_click_t	Double Click	双击				
	FAQ	FALSE	setting_title_group_about	FAQ	关于与帮助				
	General	FALSE	setting_title_group_base	General	基本设置				
	Hide Completed	FALSE	setting_title_hide_finish_t	Hide Completed	隐藏已完成				
	How to color	FALSE	setting_title_how_color_t	How to color	如何填色				
	Rate us	FALSE	setting_title_rate_us_t	Rate us	评分				
	Version	FALSE	setting_title_rate_version_t	Version	版本号				
	Color history path animation showing shading	FALSE	setting_title_show_shading_s	Color history path animation showing shading	完成涂色的动画是否展示灰色像素画底图				
	Show Shading	FALSE	setting_title_show_shading_t	Show Shading	展示像素画底图				
	Share	FALSE	share	Share	分享				
	Create by %1$s	FALSE	share_author	Create by %1$s	作者：%1$s				
	Create by %@		share_author	Create by %@	作者：%@				
	Save to gallery	FALSE	share_label	Save to gallery	保存到相册				
	More\nPictures	FALSE	share_more	More\nPictures	更多\n图片				
	Super!	FALSE	share_title_1	Super!	超级棒！				
	Incredible!	FALSE	share_title_2	Incredible!	难以置信！				
	Awesome!	FALSE	share_title_3	Awesome!	真棒！				
	Success!	FALSE	share_title_4	Success!	成功！				
	Excellent!	FALSE	share_title_5	Excellent!	优秀！				
	Way to go!	FALSE	share_title_6	Way to go!	了不起！				
	Congratulations!	FALSE	share_title_7	Congratulations!	恭喜！				
	Keep going!	FALSE	share_title_8	Keep going!	继续！				
	Impressive!	FALSE	share_title_9	Impressive!	令人印象深刻！				
	Successful upload	FALSE	share_upload_ok	Successful upload	上传成功!				
	You must accept the#Terms of Service#to submit your image	FALSE	share_upload_prompts	You must accept the#Terms of Service#to submit your image	您必须接受#服务条款#才能上传您的图片				
	Your Name	FALSE	share_upload_title	Your Name	你的名字				
	Skip	FALSE	skip	Skip	跳过				
	Submit	FALSE	submit	Submit	提交				
	Unlock all features and remove ads!	FALSE	subscrip_sub_title1	Unlock all features and remove ads!	解锁所有功能并删除广告！				
	One payment, lifetime membership	FALSE	subscrip_sub_title2	One payment, lifetime membership	一次付款，终身会员资格				
	UNLIMITED ACCESS	FALSE	subscrip_title	UNLIMITED ACCESS	无限访问				
	Loading, wait a minute please.	FALSE	tip_doing	Loading, wait a minute please.	加载中，请稍后				
	Collected!	FALSE	tip_get_goods	Collected!	获得				
	The completed ones will be found in Me page, or %1$s to get them back.	FALSE	tip_hide_complete	The completed ones will be found in Me page, or %1$s to get them back.	已完成的图片会在我的作品页展示，也可以在 %1$s 调整图库中是否展示已完成图片				
	go Setting	FALSE	tip_hide_complete_holder	go Setting	设置页				
	Tap and hold a picture to restart or delete it	FALSE	tip_long_touch	Tap and hold a picture to restart or delete it	点击并按住图片以重新填色或删除它				
	Your works will display here	FALSE	tip_me_empty	Your works will display here	这里将会显示你的作品				
	Dear artist,\nyou have no works being in progress	FALSE	tip_me_in_progress_empty	Dear artist,\nyou have no works being in progress	暂时没有正在涂色的作品哟~				
	Network error, please try again later.	FALSE	tip_network_error	Network error, please try again later.	网络不给力，请稍后再试				
	The data was lost. Click to retry.	FALSE	tip_no_data	The data was lost. Click to retry.	获取数据失败，点击重试				
	Please install Facebook first	FALSE	tip_no_install_fb	Please install Facebook first	请先安装Facebook				
	Please install Instagram first	FALSE	tip_no_install_is	Please install Instagram first	请先安装Instagram				
	Oops, connect to the network for more pics...	FALSE	tip_no_network	Oops, connect to the network for more pics...	糟糕，连接到网络以获取更多图片......				
	BitColor needs access to save your work.	FALSE	tip_no_permission	BitColor needs access to save your work.	BitColor需要访问权限来保存您的工作。				
	No video, please try again later.	FALSE	tip_no_video_ad	No video, please try again later.	暂时没有视频，请稍后再试				
	YES	FALSE	yes_upper	YES	好的				
	Follow our Facebook	FALSE	activities_bonus_empty_1	Follow our Facebook	关注我们的Facebook				
	Get rare image	FALSE	activities_bonus_empty_2	Get rare image	得到稀有的图片				
	GET NOW	FALSE	activities_bonus_empty_3	GET NOW	现在就来				
	You’ve received this Bonus	FALSE	activities_bonus_state_1	You’ve received this Bonus	你已经领过这些奖励了				
	Something went wrong...	FALSE	activities_bonus_state_2	Something went\n wrong...	有些不对劲...				
	Loading... Please wait	FALSE	activities_bonus_state_3	Loading... Please wait	加载中，请稍候				
	Receive your Facebook Bonus	FALSE	activities_bonus_state_4	Receive your Facebook Bonus	收到来自Facebook的奖励				
	Oops, Link has expired	FALSE	activities_bonus_state_5	Oops, Link has expired	糟糕，链接已过期				
	Oops, All Bonus were distributed	FALSE	activities_bonus_state_6	Oops, All Bonus were distributed	哎呀，奖励都发完啦				
	%1$d hours ago	FALSE	activities_date_hours	%1$d hours ago	%1$d 小时前				
	Just now	FALSE	activities_date_just_now	Just now	现在				
	Yesterday	FALSE	activities_date_yesterday	Yesterday	昨天				
daily	Draw	FALSE	create_draw	Draw	自绘图片				
	is limited time free till tomorrow, let\'s go to color!	FALSE	daily_guide_describe_behind	is limited time free till tomorrow, let\'s go to color!	快来涂当天新图吧，否则会在明天被加锁哦!				
	Today\'s daily art	FALSE	daily_guide_describe_front	Today\'s daily art	今日每日一涂				
	January	FALSE	daily_month_1	January	一月				
	October	FALSE	daily_month_10	October	十月				
	November	FALSE	daily_month_11	November	十一月				
	December	FALSE	daily_month_12	December	十二月				
	February	FALSE	daily_month_2	February	二月				
	March	FALSE	daily_month_3	March	三月				
	April	FALSE	daily_month_4	April	四月				
	May	FALSE	daily_month_5	May	五月				
	June	FALSE	daily_month_6	June	六月				
	July	FALSE	daily_month_7	July	七月				
	August	FALSE	daily_month_8	August	八月				
	September	FALSE	daily_month_9	September	九月				
	Today\'s	FALSE	daily_top_title1	Today\'s	今天的				
	Today\'s Art	FALSE	daily_top_title1_ab	Today\'s Art	今日每日一涂				
	Daily Art	FALSE	daily_top_title2	Daily Art	每日一图				
	Free for	FALSE	daily_top_title2_ab	Free for	限时免费				
	Color Now	FALSE	daily_top_title3	Color Now	立刻涂色				
	Tomorrow Free Pic is Coming Soon			Tomorrow Free Pic is Coming Soon	下一张免费图片正在路上				
									
	Get Now	FALSE	daily_top_title3_ab	Get Now	马上领取				
	Sounds	FALSE	setting_item_sounds	Sounds	声音				
	Ok, receive it	FALSE	dialog_fill_finish_btn1	Ok, receive it	好的，收下了				
	Rewards x 2	FALSE	dialog_fill_finish_btn2	Rewards x 2	奖励 x 2				
	Congratulations	FALSE	dialog_fill_finish_tip1	Congratulations	恭喜				
	Item rewards are ready for you	FALSE	dialog_fill_finish_tip2	Item rewards are ready for you	双手奉上道具奖励，请查收~				
	Continue	FALSE	dialog_lt_item1	Continue	继续				
	Restart	FALSE	dialog_lt_item2	Restart	重来				
	Delete	FALSE	dialog_lt_item3	Delete	删除				
	Do you want to start over?	FALSE	dialog_lt_title	Do you want to start over?	你想重新开始吗？				
	Bomb	FALSE	dialog_select_goods_bomb	Bomb	炸弹				
	Choose your reward	FALSE	dialog_select_goods_choose_your_reward	Choose your reward	选择你的奖励				
	Collect	FALSE	dialog_select_goods_collect	Collect	收集				
	Color Splash	FALSE	dialog_select_goods_color_splash	Color Splash	油漆桶				
	Paint Hint	FALSE	dialog_select_goods_paint_hint	Paint Hint	指示灯				
	Get All Features	FALSE	dialog_video_default_sub_title	Get All Features	就在现在！				
	Go Premium	FALSE	dialog_video_default_title	GO PREMIUM	成为会员				
	Watch a video	FALSE	dialog_video_sub_title_ad	Watch a video	观看视频				
	Get this Art Free	FALSE	dialog_video_title_ad_1	Get this Art Free	解锁当前图片				
	Get Paint Hint	FALSE	dialog_video_title_ad_2	Get Paint Hint	获取更多次数				
	Get Color Splash	FALSE	dialog_video_title_ad_3	Get Color Splash	获取更多次数				
	Get Import Feature	FALSE	dialog_video_title_ad_4	Get Import Feature	获取更多次数				
	Get Bomb	FALSE	dialog_video_title_ad_5	Get Bomb	获取更多次数				
	Get this Art Free Watch a video	FALSE	dialog_video_title_no_ad_1	Get this Art Free Watch a video	获取更多次数				
	Get Paint Hint Watch a video	FALSE	dialog_video_title_no_ad_2	Get Paint Hint Watch a video	获取更多次数				
	Get Color Splash Watch a video	FALSE	dialog_video_title_no_ad_3	Get Color Splash Watch a video	获取更多次数				
	Get Import Feature Watch a video	FALSE	dialog_video_title_no_ad_4	Get Import Feature Watch a video	获取更多次数				
	Get Bomb Watch a video	FALSE	dialog_video_title_no_ad_5	Get Bomb Watch a video	获取更多次数				
	Filling same color area	FALSE	edit_guide_tip4	Filling same color area	填充相邻区域				
	Auto find next filling area	FALSE	edit_guide_tip5	Auto find next filling area	查找下一个色块				
	Auto fill circular area	FALSE	edit_guide_tip6	Auto fill circular area	自动填充圆形区域				
3.8.0	Night Mode	FALSE	setting	Night Mode	夜间模式				
	Coloring feedback animation	FALSE	setting	Coloring feedback animation	涂色过程动画				
	Terms & Privacy	FALSE	setting	Terms & Privacy	条款与隐私协议				
	Subscription	FALSE	setting	Subscription	订阅				
	About	FALSE	setting	About	关于				
	Purchase	FALSE	setting	Purchase	购买				
	Restore Failed!	FALSE	subscription_module	Restore Failed!	购买记录恢复失败！				
	Cannot connect to iTunes Store	FALSE	subscription_module	Cannot connect to iTunes Store	无法连接到iTunes Store				
	Nothing to Restore!	FALSE	subscription_module	Nothing to Restore!	未找到购买记录！				
	Restore Success!	FALSE	subscription_module	Restore Success!	购买记录恢复成功！				
	Purchase Failed!	FALSE	subscription_module	Purchase Failed!	购买失败！				
	Subscription has been restored!	FALSE	subscription_module	Subscription has been restored!	订阅记录已恢复！				
	Sorry	FALSE	subscription_module	Sorry	抱歉				
	You have no active subscription to restore!	FALSE	subscription_module	You have no active subscription to restore!	您没有购买记录可以恢复！				
	Get this Art	FALSE	subscription_module	Get this Art	打开这张图片				
	Try for FREE	FALSE	subscription_module	Try for FREE	免费试用				
	Plan automatically renews weekly	FALSE	subscription_module	Plan automatically renews weekly	每周自动订阅				
	CONTINUE	FALSE	subscription_module	CONTINUE	继续				
	Pics for any taste	FALSE	subscription_module	Pics for any taste	任意类型的图片				
	Night mode available	FALSE	subscription_module	Night mode available	开启夜间模式				
	Update everyday	FALSE	subscription_module	Update everyday	每天更新图片				
	%@/week after 7-day trail	FALSE	subscription_module	%@/week after 7-day trail	7天试用之后 %@/周				
	Subscription_Terms&Privacy_Text	FALSE	subscription_module	BitColor Subscription\n BitColor Subscription is a paid subscription that allows you to unlock unlimited pictures, new updates.\n Weekly subscription with 7-day free trial period is %@ or equal to the same price tier as Apple App Store Matrix determines as the equivalent of subscription price in USD.\n Payment will be charged to iTunes Account at confirmation of purchase.\n Subscription will be automatically renewed for the same price and duration period, auto-renew can be turned off at least 24 hours before the end of the current period.\n Your account will be charged for the subscription fee within 24 hours prior to the end of the current period for the price initially selected.\n Subscriptions may be managed by you and auto-renewal may be turned off by going to the users's iTunes Account Settings. For more information please visit the link https://support.apple.com/en-us/HT202039.\n No cancellation of the current subscription is allowed during the active subscription period.\n Unused portion of a free-trial period will be forfeited when a user decides to subscribe.\n EULA: http://bcweb.dailyinnovation.biz/terms.html\n Privacy Policy: http://bcweb.dailyinnovation.biz/privacy.html\n	Bitcolor订阅\n 订阅Bitcolor后，立即解锁所有图片，每日更新图片。\n 含7天免费试用的周费会员是%@或者等于Apple App Store Matrix 相同价格的当地货币，相当于美元的订阅价格。\n 一旦确认购买，款项将从您的iTunes账户中扣除。\n 订阅将会在下个周期以相同的价格自动续订，可以在订阅期结束前至少24个小时取消自动续订。\n 您的账户会在计费周期到期前24小时扣费。\n 您可以在个人 iTunes 账户设置里管理订阅或者关闭自动续订。\n 更多信息请查看链接：https://support.apple.com/en-us/HT202039.\n 在有效订阅期间，不允许取消当前订阅。\n 免费试用周期内的未使用的部分在开始订阅时将会被取消。\n 请查阅我们的EULA: http://bcweb.dailyinnovation.biz/terms.html\n 隐私协议政策: http://bcweb.dailyinnovation.biz/privacy.html				
	No colored pages	FALSE	my_work_module	No colored pages	你还没有开始涂色				
	Release To Load More Pages		refresh_module	Release To Load More Pages	释放加载更多图片				
	Loading More Pages...		refresh_module	Loading More Pages...	加载更多图片				
	No More Data		refresh_module	No More Data	无更多数据				
	No video, please try again later.		refresh_module	No video, please try again later.	没有视频，请稍后再试				
	The data was lost. Pull to retry		refresh_module	The data was lost. Pull to retry	数据丢失了，下拉重试				
	Create by BitColor			Create by BitColor	由Bitcolor创建				
	Finish			Finish	完成				
	Retake			Retake	重选				
	Use			Use	使用				
Achievement	Achievements			Achievements	成就				
	Rise to the challenge			Rise to the challenge	来迎接挑战吧				
	Art Hunter			Art Hunter	大艺术家				
	Pixel Holic			Pixel Holic	像素控				
	Finish %d pics			Finish %d pics	完成%d张图片				
	Rewards			Rewards	奖励				
	More badges are coming!			More badges are coming!	更多奖励正在路上！				
	Finish pictures to earn them!			Finish pictures to earn them!	完成涂色来获得奖励！				
	Daily pixel to earn them!			Daily pixel to earn them!	每日登陆来获得奖励！				
	Open app %d days			Open app %d days	打开应用第%d天				
	Open app 1 day			Open app 1 day	打开应用第一天				
	Badge Earned!			Badge Earned!	获得勋章！				
	Go!			Go!	去领奖！				
	Finish %d pics to get the reward!			Finish %d pics to get the reward!	完成%d张图片即可获得奖励！				
	Return to app for %d days to get the reward!			Return to app for %d days to get the reward!	打开应用%d天即可获得奖励！				
	Return to app for 1 day to get the reward!			Return to app for 1 day to get the reward!	打开应用1天即可获得奖励！				
	Unlocked a beautiful picture			Unlocked a beautiful picture	解锁了一张精美图片				
Toast	Network Error		toast_module	Network Error	网络错误				
	Share when the timelapse is finished.		toast_module	Share when the timelapse is finished.	正在生成涂色历史动画，请在结束后分享				
	No Photo Libray Permission		toast_module	No Photo Libray Permission	无相册访问权限				
	Please login to a Facebook account to share.		toast_module	Please login to a Facebook account to share.	请登录Facebook账户进行分享				
	Are you sure you want to delete this photo?			Are you sure you want to delete this photo?	你确定要删除这张照片吗？				
System	NSPhotoLibraryUsageDescription	TRUE		BitColor needs access to photos for store your pixel art work.	BitColor需要访问照片才能存储您的像素艺术作品。				
	NSPhototLibraryAddUsageDescription	TRUE		BitColor needs access to photos for store your pixel art work.	BitColor需要访问照片才能存储您的像素艺术作品。				
	NSCameraUsageDescription	TRUE		The camera is used to take pictures for pixel art.	使用相机用于拍摄像素艺术照片				
	CFBundleDisplayName	TRUE	引用名称	BitColor	BitColor				
	Unable to access your camera.			Unable to access your camera.	无法访问您的“相机”。				
	Settings camera permissions description			Please go to \"Settings\" - \"Privacy\"- \"Camera\" to allow Bitcolor to access the camera.	请在“设置”-”隐私”-“相机”中允许Bitcolor访问相机。				
	Unable to access your Photos.			Unable to access your Photos.	无法访问您的“照片”。				
	Settings photos permissions description			Please go to \"Settings\" - \"Privacy\"- \"Photos\" to allow Bitcolor to access the photos.	请在“设置”-”隐私”-“照片”中允许Bitcolor访问照片。				
	Daily Pics Notification			Daily Pics Notification	每日新图通知				
	Unable to access your Notification.			Unable to access your Notification.	无法访问您的“通知”				
	Setting notifications permissions description			Please go to \"Settings\" - \"Privacy\"- \"Notifacations\" to allow Bitcolor to access the Notification.	请在“设置”-“隐私”-“通知”中允许Bitcolor的通知权限。				